"journal","total_publications","total_ncts_published","bad_ncts","ratio"
"American journal of audiology",33,4,2,0.5
"International journal of pediatric otorhinolaryngology",258,4,1,0.25
"British journal of anaesthesia",1089,204,5,0.0245098039215686
"American journal of cardiovascular drugs : drugs, devices, and other interventions",97,36,1,0.0277777777777778
"Journal of neurosurgery. Pediatrics",30,6,1,0.166666666666667
"International journal of cardiology",1385,111,2,0.018018018018018
"Respiratory research",302,146,1,0.00684931506849315
"Complementary therapies in medicine",405,16,1,0.0625
"Obstetrics and gynecology",701,306,5,0.0163398692810458
"International journal of chronic obstructive pulmonary disease",248,34,1,0.0294117647058824
"PloS one",7315,1696,5,0.00294811320754717
"European journal of cancer (Oxford, England : 1990)",936,152,2,0.0131578947368421
"Journal of acquired immune deficiency syndromes (1999)",834,24,1,0.0416666666666667
"Journal of Korean medical science",233,33,1,0.0303030303030303
"The Journal of pediatrics",746,140,1,0.00714285714285714
"Heart (British Cardiac Society)",440,107,1,0.00934579439252336
"Rheumatology (Oxford, England)",397,81,2,0.0246913580246914
"BMC research notes",203,82,1,0.0121951219512195
"American journal of public health",254,9,1,0.111111111111111
"The journal of allergy and clinical immunology. In practice",65,10,1,0.1
"Journal of clinical monitoring and computing",154,8,1,0.125
"BMJ open",1359,654,6,0.00917431192660551
"The British journal of nutrition",1235,7,1,0.142857142857143
"The Lancet. Global health",75,45,1,0.0222222222222222
"Clinical oral investigations",443,7,1,0.142857142857143
"Graefe's archive for clinical and experimental ophthalmology = Albrecht von Graefes Archiv fur klinische und experimentelle Ophthalmologie",289,10,1,0.1
"Occupational and environmental medicine",73,7,1,0.142857142857143
"Age and ageing",218,12,1,0.0833333333333333
"Trials",3044,1495,5,0.00334448160535117
"Vaccine",1480,324,1,0.00308641975308642
"Diabetic medicine : a journal of the British Diabetic Association",506,18,1,0.0555555555555556
"Journal of cerebral blood flow and metabolism : official journal of the International Society of Cerebral Blood Flow and Metabolism",152,2,1,0.5
"The Journal of antimicrobial chemotherapy",457,144,2,0.0138888888888889
"BMC urology",92,27,1,0.037037037037037
"Journal of neurointerventional surgery",59,19,1,0.0526315789473684
"The journal of spinal cord medicine",102,3,1,0.333333333333333
"Gastrointestinal endoscopy",622,128,2,0.015625
"Journal of the American Academy of Child and Adolescent Psychiatry",381,112,1,0.00892857142857143
"Gait & posture",438,8,1,0.125
"Journal of translational medicine",214,98,1,0.0102040816326531
"Neurourology and urodynamics",261,2,1,0.5
"Obesity surgery",394,23,1,0.0434782608695652
"European journal of drug metabolism and pharmacokinetics",128,14,1,0.0714285714285714
"Fertility and sterility",1371,143,2,0.013986013986014
"Journal of the American College of Cardiology",1551,580,3,0.00517241379310345
"European archives of psychiatry and clinical neuroscience",122,4,1,0.25
"European journal of heart failure",491,80,2,0.025
"Epilepsy research",174,23,1,0.0434782608695652
"Annals of oncology : official journal of the European Society for Medical Oncology",1748,372,3,0.00806451612903226
"Surgical endoscopy",888,50,3,0.06
"Clinical therapeutics",1184,304,2,0.00657894736842105
"Hepatology (Baltimore, Md.)",452,19,1,0.0526315789473684
"The Journal of nutrition",1091,223,2,0.00896860986547085
"Reproductive biology and endocrinology : RB&E",84,20,1,0.05
"Breast cancer research and treatment",732,46,2,0.0434782608695652
"Future oncology (London, England)",95,24,1,0.0416666666666667
"Clinical research in cardiology : official journal of the German Cardiac Society",217,26,1,0.0384615384615385
"BMC cancer",936,521,3,0.00575815738963532
"European heart journal. Acute cardiovascular care",57,12,1,0.0833333333333333
"European journal of clinical investigation",152,7,1,0.142857142857143
"Danish medical journal",90,45,1,0.0222222222222222
"The Journal of infectious diseases",861,283,3,0.0106007067137809
"Blood",1819,642,7,0.0109034267912773
"Targeted oncology",46,25,2,0.08
"Stroke",1268,284,5,0.0176056338028169
"The lancet. Psychiatry",75,30,1,0.0333333333333333
"Clinical cancer research : an official journal of the American Association for Cancer Research",1831,32,2,0.0625
"American journal of respiratory and critical care medicine",673,218,1,0.00458715596330275
"International journal of rehabilitation research. Internationale Zeitschrift fur Rehabilitationsforschung. Revue internationale de recherches de readaptation",115,1,1,1
"Clinical infectious diseases : an official publication of the Infectious Diseases Society of America",835,283,4,0.0141342756183746
"Journal of the International Society of Sports Nutrition",125,13,1,0.0769230769230769
"Circulation. Heart failure",200,127,3,0.0236220472440945
"Retrovirology",7,4,1,0.25
"Alzheimer's & dementia : the journal of the Alzheimer's Association",52,7,2,0.285714285714286
"Biology of blood and marrow transplantation : journal of the American Society for Blood and Marrow Transplantation",729,40,1,0.025
"European journal of haematology",242,13,1,0.0769230769230769
"Preventive medicine",456,24,1,0.0416666666666667
"PM & R : the journal of injury, function, and rehabilitation",126,11,1,0.0909090909090909
"The British journal of clinical psychology",62,1,1,1
"Gastroenterology",573,196,1,0.00510204081632653
"Journal of thoracic oncology : official publication of the International Association for the Study of Lung Cancer",553,18,1,0.0555555555555556
"The American journal of clinical nutrition",1949,588,5,0.00850340136054422
"Scandinavian journal of gastroenterology",305,9,1,0.111111111111111
"Investigational new drugs",851,58,1,0.0172413793103448
"Respiratory medicine",668,140,2,0.0142857142857143
"The British journal of ophthalmology",489,80,3,0.0375
"Langenbeck's archives of surgery",109,7,2,0.285714285714286
"Lancet (London, England)",1647,946,4,0.00422832980972516
"Chest",884,227,2,0.00881057268722467
"Postgraduate medicine",129,59,1,0.0169491525423729
"Circulation",1635,460,4,0.00869565217391304
"Nephrology, dialysis, transplantation : official publication of the European Dialysis and Transplant Association - European Renal Association",696,44,2,0.0454545454545455
"European urology",563,97,1,0.0103092783505155
"Archives of gerontology and geriatrics",193,3,1,0.333333333333333
"The Clinical journal of pain",502,5,1,0.2
"Annals of allergy, asthma & immunology : official publication of the American College of Allergy, Asthma, & Immunology",454,91,1,0.010989010989011
"JAMA",1165,792,1,0.00126262626262626
"Journal of affective disorders",800,37,2,0.0540540540540541
"Haematologica",695,127,1,0.0078740157480315
"Alimentary pharmacology & therapeutics",967,107,3,0.0280373831775701
"The Journal of dermatological treatment",359,11,1,0.0909090909090909
"Clinical nutrition (Edinburgh, Scotland)",464,118,1,0.00847457627118644
"CMAJ : Canadian Medical Association journal = journal de l'Association medicale canadienne",131,37,2,0.0540540540540541
"American journal of hematology",451,48,1,0.0208333333333333
"Annals of surgery",689,127,1,0.0078740157480315
"International journal of food sciences and nutrition",219,5,1,0.2
"European journal of pharmacology",69,4,1,0.25
"Orphanet journal of rare diseases",59,45,1,0.0222222222222222
"The Lancet. Infectious diseases",216,156,1,0.00641025641025641
"Journal of the Formosan Medical Association = Taiwan yi zhi",99,6,1,0.166666666666667
"BMC neurology",366,163,1,0.00613496932515337
"Arthritis research & therapy",325,202,1,0.00495049504950495
"Family medicine",46,1,1,1
"BMC immunology",11,1,1,1
"Journal of the Chinese Medical Association : JCMA",62,1,1,1
"BMC nephrology",309,114,1,0.0087719298245614
"American journal of transplantation : official journal of the American Society of Transplantation and the American Society of Transplant Surgeons",378,11,1,0.0909090909090909
"Current medical research and opinion",1103,306,2,0.0065359477124183
"Journal of epidemiology and community health",78,9,1,0.111111111111111
"Annals of internal medicine",428,185,1,0.00540540540540541
"BMC musculoskeletal disorders",928,321,2,0.00623052959501558
"BMJ (Clinical research ed.)",770,189,2,0.0105820105820106
"Cytokine",153,4,1,0.25
"Human reproduction (Oxford, England)",642,125,1,0.008
"Journal of physiotherapy",95,19,1,0.0526315789473684
"The journal of supportive oncology",39,1,1,1
"Journal of neuro-oncology",410,10,1,0.1
"BMC psychiatry",669,215,1,0.00465116279069767
"BMC health services research",441,137,1,0.0072992700729927
"Journal of alternative and complementary medicine (New York, N.Y.)",740,3,1,0.333333333333333
"BMC surgery",130,37,1,0.027027027027027
"Archives of internal medicine",396,95,1,0.0105263157894737
